…
``` r
seabird_count %>%
  distinct(wind_speed)
```

    ## # A tibble: 50 × 1
    ##    wind_speed        
    ##    <chr>             
    ##  1 7                 
    ##  2 10                
    ##  3 5.5               
    ##  4 1                 
    ##  5 25                
    ##  6 2                 
    ##  7 11                
    ##  8 0                 
    ##  9 6                 
    ## 10 7.4000000000000004
    ## # ℹ 40 more rows

``` r
seabird_count_tidy %>%
  distinct(wind_speed_new)
```

    ## # A tibble: 42 × 1
    ##    wind_speed_new
    ##             <dbl>
    ##  1            7  
    ##  2           10  
    ##  3            5.5
    ##  4            1  
    ##  5           25  
    ##  6            2  
    ##  7           11  
    ##  8            0  
    ##  9            6  
    ## 10            7.4
    ## # ℹ 32 more rows

``` r
seabird_count_tidy %>%
  distinct(time)
```

    ## # A tibble: 92 × 1
    ##     time
    ##    <dbl>
    ##  1  1015
    ##  2  1515
    ##  3  1520
    ##  4   915
    ##  5   800
    ##  6  1445
    ##  7  1122
    ##  8  1249
    ##  9  1510
    ## 10  1550
    ## # ℹ 82 more rows
…
